<svg width="80" height="80" viewBox="0 0 80 80" fill="none" xmlns="http://www.w3.org/2000/svg">
<path d="M60 8H76C77.0609 8 78.0783 8.42143 78.8284 9.17157C79.5786 9.92172 80 10.9391 80 12V76C80 77.0609 79.5786 78.0783 78.8284 78.8284C78.0783 79.5786 77.0609 80 76 80H4C2.93913 80 1.92172 79.5786 1.17157 78.8284C0.421427 78.0783 0 77.0609 0 76V12C0 10.9391 0.421427 9.92172 1.17157 9.17157C1.92172 8.42143 2.93913 8 4 8H20V0H28V8H52V0H60V8ZM8 32V72H72V32H8ZM16 48H36V64H16V48Z" fill="#FF628A"/>
</svg>
