<svg width="277" height="417" viewBox="0 0 277 417" fill="none" xmlns="http://www.w3.org/2000/svg">
<path d="M63.8753 240.882L64.9832 238.738C65.1053 238.808 77.4767 244.994 80.4418 239.538C80.7207 239.041 80.8752 238.484 80.8921 237.914C80.909 237.344 80.7878 236.779 80.5389 236.266C79.8454 236.669 79.0783 236.929 78.283 237.031C77.4877 237.132 76.6803 237.072 75.9088 236.856C71.1309 235.294 66.5397 231.207 66.4709 228.449C66.4481 227.972 66.5796 227.5 66.8459 227.103C67.1121 226.706 67.4989 226.406 67.949 226.246C70.4443 225.272 77.6339 228.77 80.9813 232.585L81.2098 232.847C82.4378 231.719 83.4013 230.332 84.0312 228.788C84.2143 228.352 84.3587 227.9 84.4629 227.438C84.0149 227.18 83.5014 226.959 82.9917 226.676C78.6418 224.241 70.8503 217.948 72.3371 215.184C73.2301 213.525 75.5758 213.976 80.761 216.676C85.5376 218.956 87.1497 222.54 87.0672 225.918C87.5362 226.088 88.0168 226.223 88.5052 226.325C90.8299 226.775 91.3856 225.812 91.6022 225.437C91.9491 224.86 92.1668 224.214 92.2401 223.545C92.3134 222.875 92.2407 222.198 92.0269 221.56C90.2529 215.849 79.8651 210.873 79.7626 210.825L80.7925 208.646C81.2405 208.905 92.2348 214.165 94.3844 220.844C94.702 221.799 94.8098 222.812 94.7004 223.813C94.591 224.814 94.2669 225.78 93.7504 226.645C92.9686 227.999 91.0857 229.718 86.7724 228.348C86.6504 228.803 86.5008 229.251 86.3245 229.688C85.508 231.679 84.2387 233.452 82.6175 234.867C83.1134 235.753 83.375 236.751 83.3776 237.767C83.3802 238.783 83.1237 239.783 82.6323 240.673C78.4192 248.29 64.4677 241.192 63.8753 240.882ZM68.8395 228.522C68.9468 229.672 72.2083 233.164 76.6228 234.604C77.4861 234.819 78.3994 234.696 79.1767 234.262C76.0596 230.613 70.1126 228.311 68.8617 228.502L68.8395 228.522ZM74.8227 216.804C76.0511 218.721 80.4014 222.679 84.6007 224.886C84.3742 222.852 83.1768 220.562 79.6459 218.871C78.1243 218.007 76.5149 217.308 74.845 216.785L74.8227 216.804Z" fill="#E41517"/>
<path d="M147.098 254.554L34.2245 186.243C26.3773 181.495 24.4995 171.863 29.2542 164.004L58.0053 114.205C62.7599 106.346 73.5196 103.586 81.3985 108.298L199.977 165.579C203.743 167.859 206.449 171.542 207.502 175.82C208.555 180.098 207.867 184.621 205.591 188.397L170.136 249.638C165.363 257.529 154.945 259.302 147.098 254.554Z" fill="#E41517"/>
<path d="M78.1577 181.798C90.5643 188.96 106.437 184.695 113.61 172.27C120.784 159.846 116.542 143.967 104.135 136.804C91.7284 129.641 75.8557 133.906 68.6823 146.331C61.5089 158.756 65.7512 174.635 78.1577 181.798Z" fill="white"/>
<path d="M100.466 173.914C105.162 176.625 111.171 175.01 113.886 170.307C116.601 165.604 114.996 159.593 110.299 156.882C105.603 154.17 99.5946 155.785 96.8792 160.488C94.1638 165.192 95.7697 171.202 100.466 173.914Z" fill="#1E1E1E"/>
<path d="M133.938 214.468C146.421 221.675 162.391 217.383 169.609 204.882C176.826 192.381 172.558 176.404 160.075 169.197C147.592 161.99 131.621 166.282 124.404 178.783C117.186 191.284 121.455 207.261 133.938 214.468Z" fill="white"/>
<path d="M129.33 190.263C133.941 192.925 139.84 191.339 142.506 186.722C145.172 182.104 143.596 176.203 138.985 173.541C134.374 170.879 128.475 172.464 125.809 177.082C123.143 181.699 124.719 187.601 129.33 190.263Z" fill="#1E1E1E"/>
<path d="M44.6072 125.882L29.7725 151.577C26.3702 149.612 23.8887 146.375 22.8739 142.577C21.8591 138.778 22.3942 134.73 24.3614 131.323C26.3286 127.916 29.5668 125.428 33.3636 124.408C37.1605 123.387 41.2049 123.918 44.6072 125.882Z" fill="#E41517"/>
<path d="M32.2679 134.333L16.499 125.229L14.7047 128.337L30.4736 137.441L32.2679 134.333Z" fill="#E41517"/>
<path d="M12.3552 129.265C14.4874 130.496 17.2153 129.762 18.4482 127.627C19.681 125.492 18.9519 122.763 16.8197 121.532C14.6874 120.301 11.9595 121.034 10.7267 123.169C9.49381 125.304 10.2229 128.033 12.3552 129.265Z" fill="#E41517"/>
<path d="M206.958 197.921L192.119 223.623C193.806 224.655 195.683 225.338 197.64 225.633C199.596 225.927 201.592 225.826 203.51 225.337C205.428 224.847 207.229 223.978 208.807 222.782C210.385 221.585 211.708 220.085 212.698 218.37C213.689 216.654 214.326 214.758 214.574 212.793C214.821 210.828 214.672 208.834 214.137 206.929C213.603 205.023 212.692 203.244 211.459 201.697C210.226 200.15 208.696 198.866 206.958 197.921Z" fill="#E41517"/>
<path d="M204.028 215.934L219.797 225.039L221.591 221.931L205.823 212.827L204.028 215.934Z" fill="#E41517"/>
<path d="M220.155 227.542C222.288 228.773 225.016 228.04 226.248 225.904C227.481 223.769 226.752 221.04 224.62 219.809C222.488 218.578 219.76 219.311 218.527 221.446C217.294 223.582 218.023 226.311 220.155 227.542Z" fill="#E41517"/>
<path d="M117.464 97.5535L114.831 101.905C112.23 106.204 113.601 111.795 117.893 114.393L167.395 144.351C171.687 146.949 177.276 145.57 179.878 141.27L182.511 136.919C185.112 132.62 183.741 127.028 179.448 124.43L129.947 94.473C125.655 91.8751 120.066 93.2543 117.464 97.5535Z" fill="#E41517"/>
<path d="M-24.1866 212.456C-27.9483 210.268 -30.9842 207.023 -32.9177 203.123C-34.8512 199.222 -35.5973 194.838 -35.0635 190.514L-22.5277 191.901C-22.7441 193.429 -22.5956 194.986 -22.0943 196.445C-21.593 197.903 -20.7533 199.222 -19.6439 200.292C-18.5345 201.362 -17.1871 202.154 -15.7122 202.602C-14.2372 203.05 -12.6767 203.142 -11.1586 202.869C-8.55234 202.454 -6.21508 201.023 -4.65773 198.89C-3.10038 196.757 -2.44961 194.094 -2.8477 191.484C-3.03986 190.193 -3.49838 188.956 -4.19413 187.852C-4.88988 186.748 -5.80763 185.802 -6.88909 185.072L0.116044 174.576C2.64521 176.277 4.79399 178.485 6.4269 181.06C8.05981 183.635 9.14143 186.521 9.60352 189.537C10.2456 193.761 9.67759 198.081 7.96544 201.998C6.25329 205.915 3.46715 209.267 -0.0697291 211.665C-3.60661 214.063 -7.74926 215.41 -12.0171 215.549C-16.2849 215.687 -20.503 214.612 -24.1819 212.447L-24.1866 212.456Z" fill="#E41517"/>
<path d="M-4.39785 204.797L-8.75802 207.165C-10.8965 208.327 -11.6914 211.002 -10.5335 213.141L-1.34994 230.102C-0.192048 232.241 2.48018 233.033 4.61865 231.871L8.97882 229.503C11.1173 228.342 11.9122 225.667 10.7543 223.528L1.57073 206.566C0.412843 204.428 -2.25939 203.636 -4.39785 204.797Z" fill="#E41517"/>
<path d="M143.636 123.142L139.32 119.182C140.241 118.17 162.184 94.4583 177.838 101.712L175.369 107.041C165.595 102.507 149.166 117.101 143.636 123.142Z" fill="#E41517"/>
<path d="M175.157 117.981C182.746 122.362 192.455 119.753 196.842 112.153C201.23 104.553 198.635 94.8402 191.046 90.4588C183.458 86.0774 173.749 88.6866 169.361 96.2865C164.973 103.886 167.568 113.599 175.157 117.981Z" fill="#FFC200"/>
<path d="M176.348 288.179L133.192 274.933C131.419 274.39 129.542 274.27 127.713 274.584C125.884 274.898 124.153 275.636 122.66 276.741C121.167 277.845 119.953 279.284 119.116 280.942C118.279 282.6 117.842 284.431 117.84 286.288L117.831 303.119C117.824 304.977 118.252 306.811 119.083 308.472C119.913 310.133 121.122 311.575 122.612 312.682C124.103 313.789 125.832 314.53 127.662 314.845C129.492 315.16 131.37 315.04 133.146 314.495L176.333 301.146C177.717 300.716 178.927 299.855 179.787 298.688C180.647 297.522 181.111 296.111 181.113 294.662C181.115 293.213 180.653 291.802 179.796 290.636C178.938 289.47 177.73 288.609 176.348 288.179Z" fill="#E41517"/>
<path d="M68.9925 120.079C70.495 120.947 72.4172 120.43 73.2859 118.926C74.1546 117.421 73.6409 115.498 72.1384 114.63C70.6359 113.763 68.7137 114.28 67.845 115.784C66.9763 117.289 67.49 119.212 68.9925 120.079Z" fill="#8E1017"/>
<path d="M34.0178 177.991C35.5202 178.858 37.4425 178.342 38.3112 176.837C39.1799 175.332 38.6662 173.409 37.1637 172.542C35.6612 171.674 33.739 172.191 32.8703 173.696C32.0016 175.2 32.5153 177.123 34.0178 177.991Z" fill="#8E1017"/>
<path d="M194.934 181.124C196.436 181.991 198.359 181.475 199.227 179.97C200.096 178.465 199.582 176.542 198.08 175.675C196.577 174.807 194.655 175.324 193.786 176.829C192.918 178.333 193.431 180.256 194.934 181.124Z" fill="#8E1017"/>
<path d="M155.101 250.115C156.604 250.982 158.526 250.466 159.394 248.961C160.263 247.457 159.749 245.534 158.247 244.666C156.744 243.799 154.822 244.315 153.954 245.82C153.085 247.325 153.599 249.248 155.101 250.115Z" fill="#8E1017"/>
<path d="M118.796 259.444L30.3432 214.773C26.9122 213.04 22.7235 214.42 20.9876 217.856L-14.3934 287.884C-16.1293 291.32 -14.7551 295.51 -11.324 297.243L77.1284 341.914C80.5594 343.647 84.7481 342.267 86.4839 338.831L121.865 268.802C123.601 265.367 122.227 261.177 118.796 259.444Z" fill="#E41517"/>
<path d="M96.5865 265.901L38.3235 236.476C36.0655 235.336 33.309 236.245 32.1666 238.506L8.86096 284.634C7.71856 286.895 8.62295 289.652 10.881 290.793L69.144 320.217C71.402 321.358 74.1585 320.449 75.3009 318.188L98.6065 272.06C99.7489 269.799 98.8446 267.042 96.5865 265.901Z" fill="#8E1017"/>
<path d="M4.31033 334.644L29.7148 349.312C30.2743 349.635 30.6823 350.167 30.8492 350.792C31.0161 351.416 30.9281 352.082 30.6046 352.642L28.1463 356.9C27.1758 358.581 25.5783 359.808 23.7052 360.312C21.8321 360.815 19.8368 360.553 18.1583 359.584L1.19217 349.789C-0.486311 348.82 -1.71053 347.223 -2.21115 345.349C-2.71178 343.475 -2.44781 341.478 -1.47732 339.797L0.981002 335.539C1.3045 334.979 1.83701 334.57 2.46138 334.402C3.08574 334.234 3.75083 334.321 4.31033 334.644Z" fill="#E41517"/>
<path d="M43.6399 333.338L11.1818 314.598C8.46027 313.027 4.97838 313.962 3.4048 316.688L0.541448 321.647C-1.03214 324.373 -0.101547 327.856 2.61998 329.427L35.0781 348.167C37.7996 349.738 41.2815 348.803 42.8551 346.077L45.7184 341.118C47.292 338.392 46.3614 334.909 43.6399 333.338Z" fill="#E41517"/>
<path d="M117.351 210.917C115.801 213.6 108.465 212.312 100.996 208C93.5272 203.688 88.9656 198.139 90.2848 195.29C93.2026 189.014 97.1971 197.312 104.674 201.629C112.151 205.946 120.756 205.019 117.351 210.917Z" fill="#1E1E1E"/>
<path d="M75.4442 252.425L84.038 245.065C84.038 245.065 82.2507 239.432 77.7221 236.818C73.1934 234.203 67.3834 235.482 67.3834 235.482L65.3057 246.605C67.4031 246.309 69.5382 246.721 71.3741 247.775C73.21 248.829 74.642 250.465 75.4442 252.425Z" fill="#131313"/>
<path d="M51.069 314.964L75.4503 252.419C74.652 250.461 73.2258 248.826 71.396 247.769C69.5662 246.713 67.4367 246.296 65.3423 246.583L23.3758 298.975C22.9946 299.451 22.741 300.017 22.6389 300.618C22.5369 301.22 22.5896 301.837 22.7923 302.412L28.3419 318.156C28.5973 318.878 29.1018 319.485 29.7646 319.868C30.4275 320.25 31.2053 320.384 31.9583 320.244L48.3888 317.179C48.9863 317.067 49.5458 316.805 50.0146 316.418C50.4835 316.03 50.8463 315.53 51.069 314.964Z" fill="#232323"/>
<g opacity="0.8">
<path opacity="0.8" d="M27.9991 317.228L52.0791 312.369L52.4338 311.454L27.7265 316.439L27.9991 317.228Z" fill="#EAAA56"/>
<path opacity="0.8" d="M25.7155 310.744L25.9927 311.524L54.6555 305.744L55.0103 304.829L25.7155 310.744Z" fill="#EAAA56"/>
<path opacity="0.8" d="M23.708 305.039L23.9806 305.827L57.2438 299.114L57.5985 298.199L23.708 305.039Z" fill="#EAAA56"/>
<path opacity="0.8" d="M23.352 299.016C23.1221 299.301 22.9378 299.621 22.8057 299.962L59.828 292.494L60.1687 291.603L23.352 299.016Z" fill="#EAAA56"/>
<path opacity="0.8" d="M62.7606 284.952L29.1692 291.726L28.3659 292.741L62.4059 285.868L62.7606 284.952Z" fill="#EAAA56"/>
<path opacity="0.8" d="M64.9904 279.245L65.3498 278.321L35.0014 284.444L34.2027 285.451L64.9904 279.245Z" fill="#EAAA56"/>
<path opacity="0.8" d="M67.5725 272.612L67.9273 271.697L40.8426 277.17L40.0358 278.172L67.5725 272.612Z" fill="#EAAA56"/>
<path opacity="0.8" d="M70.1555 265.991L70.5102 265.075L46.6732 269.889L45.8664 270.892L70.1555 265.991Z" fill="#EAAA56"/>
<path opacity="0.8" d="M72.7332 259.364L73.0961 258.453L52.5067 262.608L51.6999 263.61L72.7332 259.364Z" fill="#EAAA56"/>
<path opacity="0.8" d="M58.3523 255.325L57.5408 256.335L75.3313 252.74L75.4554 252.431L75.2164 251.923L58.3523 255.325Z" fill="#EAAA56"/>
<path opacity="0.8" d="M64.1767 248.04L63.3699 249.043L70.9141 247.525L70.4181 247.293C70.1274 247.164 69.8286 247.053 69.5236 246.962L64.1767 248.04Z" fill="#EAAA56"/>
<path opacity="0.8" d="M69.4163 246.922L69.5222 246.983C69.8272 247.074 70.1261 247.185 70.4168 247.314L67.0483 237.311L66.7399 238.992L69.4163 246.922Z" fill="#EAAA56"/>
<path opacity="0.8" d="M77.125 251.024L77.8048 250.449L72.6982 235.254C72.3926 235.219 72.0905 235.197 71.7965 235.179L77.125 251.024Z" fill="#EAAA56"/>
<path opacity="0.8" d="M82.0114 246.83L82.6912 246.254L80.1379 238.657C79.7475 238.264 79.3318 237.897 78.8937 237.558L82.0114 246.83Z" fill="#EAAA56"/>
</g>
</svg>
